led/simulation/qsim/exp1.msim.vcd
$comment
	File created using the following command:
		vcd file exp1.msim.vcd -direction
$end
$date
	Tue Dec 14 15:45:38 2021
$end
$version
	ModelSim Version 10.3d
$end
$timescale
	1ps
$end

$scope module exp1_vlg_vec_tst $end
$var reg 1 ! CLKpinT2JP312 $end
$var reg 1 " key1 $end
$var reg 1 # RESETK2 $end
$var wire 1 $ pin_name4 $end
$var wire 1 % pin_name5 $end
$var wire 1 & pin_name6 $end
$var wire 1 ' pin_name7 $end
$var wire 1 ( pin_name8 $end
$var wire 1 ) pin_name9 $end
$var wire 1 * pin_name10 $end
$var wire 1 + pin_name11 $end
$var wire 1 , test1LED9 $end
$var wire 1 - test1LED10 $end
$var wire 1 . sampler $end

$scope module i1 $end
$var wire 1 / gnd $end
$var wire 1 0 vcc $end
$var wire 1 1 unknown $end
$var tri1 1 2 devclrn $end
$var tri1 1 3 devpor $end
$var tri1 1 4 devoe $end
$var wire 1 5 pin_name4~output_o $end
$var wire 1 6 pin_name5~output_o $end
$var wire 1 7 pin_name6~output_o $end
$var wire 1 8 pin_name7~output_o $end
$var wire 1 9 pin_name8~output_o $end
$var wire 1 : pin_name9~output_o $end
$var wire 1 ; pin_name10~output_o $end
$var wire 1 < pin_name11~output_o $end
$var wire 1 = test1LED9~output_o $end
$var wire 1 > test1LED10~output_o $end
$var wire 1 ? key1~input_o $end
$var wire 1 @ CLKpinT2JP312~input_o $end
$var wire 1 A inst5~combout $end
$var wire 1 B inst2|26~0_combout $end
$var wire 1 C RESETK2~input_o $end
$var wire 1 D inst2|51~combout $end
$var wire 1 E inst2|24~0_combout $end
$var wire 1 F inst2|24~q $end
$var wire 1 G inst7~combout $end
$var wire 1 H inst2|26~q $end
$var wire 1 I inst2|5~combout $end
$var wire 1 J inst2|25~0_combout $end
$var wire 1 K inst2|25~q $end
$var wire 1 L inst|33~0_combout $end
$var wire 1 M inst|33~1_combout $end
$var wire 1 N inst|33~2_combout $end
$var wire 1 O inst|33~3_combout $end
$var wire 1 P inst|33~4_combout $end
$var wire 1 Q inst|33~5_combout $end
$var wire 1 R inst|33~6_combout $end
$var wire 1 S inst|33~7_combout $end
$upscope $end
$upscope $end
$enddefinitions $end
#0
$dumpvars
0!
1"
0#
1$
0%
0&
0'
0(
0)
0*
0+
0,
0-
x.
0/
10
x1
12
13
14
15
06
07
08
09
0:
0;
0<
0=
0>
1?
0@
0A
1B
0C
1D
1E
0F
0G
0H
1I
1J
0K
1L
0M
0N
0O
0P
0Q
0R
0S
$end
#10000000
1!
1@
0.
1A
1=
1,
1H
1M
0L
0B
05
16
0$
1%
#20000000
0!
0@
1.
0A
0=
0,
0I
#30000000
1!
1@
0.
1A
1=
1,
1I
1K
0H
1N
0M
0J
1B
06
17
0%
1&
#40000000
0!
0@
1.
0A
0=
0,
#50000000
1!
1@
0.
1A
1=
1,
1H
1O
0N
0B
07
18
0&
1'
#60000000
0!
0@
1.
0A
0=
0,
0I
0D
#70000000
1!
1@
0.
1A
1=
1,
1I
1D
0K
1F
0H
1P
0O
1J
0E
1B
08
19
0'
1(
#80000000
0!
0@
1.
0A
0=
0,
#90000000
1!
1@
0.
1A
1=
1,
1H
1Q
0P
0B
09
1:
0(
1)
